%YAML 1.1
%TAG !u! tag:unity3d.com,2011:
--- !u!29 &1
OcclusionCullingSettings:
  m_ObjectHideFlags: 0
  serializedVersion: 2
  m_OcclusionBakeSettings:
    smallestOccluder: 5
    smallestHole: 0.25
    backfaceThreshold: 100
  m_SceneGUID: 00000000000000000000000000000000
  m_OcclusionCullingData: {fileID: 0}
--- !u!104 &2
RenderSettings:
  m_ObjectHideFlags: 0
  serializedVersion: 8
  m_Fog: 0
  m_FogColor: {r: 0.5, g: 0.5, b: 0.5, a: 1}
  m_FogMode: 3
  m_FogDensity: 0.01
  m_LinearFogStart: 0
  m_LinearFogEnd: 300
  m_AmbientSkyColor: {r: 0.212, g: 0.227, b: 0.259, a: 1}
  m_AmbientEquatorColor: {r: 0.114, g: 0.125, b: 0.133, a: 1}
  m_AmbientGroundColor: {r: 0.047, g: 0.043, b: 0.035, a: 1}
  m_AmbientIntensity: 1
  m_AmbientMode: 0
  m_SubtractiveShadowColor: {r: 0.42, g: 0.478, b: 0.627, a: 1}
  m_SkyboxMaterial: {fileID: 10304, guid: 0000000000000000f000000000000000, type: 0}
  m_HaloStrength: 0.5
  m_FlareStrength: 1
  m_FlareFadeSpeed: 3
  m_HaloTexture: {fileID: 0}
  m_SpotCookie: {fileID: 10001, guid: 0000000000000000e000000000000000, type: 0}
  m_DefaultReflectionMode: 0
  m_DefaultReflectionResolution: 128
  m_ReflectionBounces: 1
  m_ReflectionIntensity: 1
  m_CustomReflection: {fileID: 0}
  m_Sun: {fileID: 0}
  m_IndirectSpecularColor: {r: 0.44657898, g: 0.4964133, b: 0.5748178, a: 1}
--- !u!157 &3
LightmapSettings:
  m_ObjectHideFlags: 0
  serializedVersion: 11
  m_GIWorkflowMode: 0
  m_GISettings:
    serializedVersion: 2
    m_BounceScale: 1
    m_IndirectOutputScale: 1
    m_AlbedoBoost: 1
    m_TemporalCoherenceThreshold: 1
    m_EnvironmentLightingMode: 0
    m_EnableBakedLightmaps: 1
    m_EnableRealtimeLightmaps: 1
  m_LightmapEditorSettings:
    serializedVersion: 9
    m_Resolution: 2
    m_BakeResolution: 40
    m_TextureWidth: 1024
    m_TextureHeight: 1024
    m_AO: 0
    m_AOMaxDistance: 1
    m_CompAOExponent: 1
    m_CompAOExponentDirect: 0
    m_Padding: 2
    m_LightmapParameters: {fileID: 0}
    m_LightmapsBakeMode: 1
    m_TextureCompression: 1
    m_FinalGather: 0
    m_FinalGatherFiltering: 1
    m_FinalGatherRayCount: 256
    m_ReflectionCompression: 2
    m_MixedBakeMode: 2
    m_BakeBackend: 0
    m_PVRSampling: 1
    m_PVRDirectSampleCount: 32
    m_PVRSampleCount: 500
    m_PVRBounces: 2
    m_PVRFilterTypeDirect: 0
    m_PVRFilterTypeIndirect: 0
    m_PVRFilterTypeAO: 0
    m_PVRFilteringMode: 1
    m_PVRCulling: 1
    m_PVRFilteringGaussRadiusDirect: 1
    m_PVRFilteringGaussRadiusIndirect: 5
    m_PVRFilteringGaussRadiusAO: 2
    m_PVRFilteringAtrousPositionSigmaDirect: 0.5
    m_PVRFilteringAtrousPositionSigmaIndirect: 2
    m_PVRFilteringAtrousPositionSigmaAO: 1
    m_ShowResolutionOverlay: 1
  m_LightingDataAsset: {fileID: 0}
  m_UseShadowmask: 1
--- !u!196 &4
NavMeshSettings:
  serializedVersion: 2
  m_ObjectHideFlags: 0
  m_BuildSettings:
    serializedVersion: 2
    agentTypeID: 0
    agentRadius: 0.5
    agentHeight: 2
    agentSlope: 45
    agentClimb: 0.4
    ledgeDropHeight: 0
    maxJumpAcrossDistance: 0
    minRegionArea: 2
    manualCellSize: 0
    cellSize: 0.16666667
    manualTileSize: 0
    tileSize: 256
    accuratePlacement: 0
    debug:
      m_Flags: 0
  m_NavMeshData: {fileID: 0}
--- !u!4 &38770094 stripped
Transform:
  m_PrefabParentObject: {fileID: 4647506227354428, guid: 1d38a18755808db488ac7aacd9df3e3d,
    type: 2}
  m_PrefabInternal: {fileID: 2132282819}
--- !u!1001 &49427802
Prefab:
  m_ObjectHideFlags: 0
  serializedVersion: 2
  m_Modification:
    m_TransformParent: {fileID: 810663116}
    m_Modifications:
    - target: {fileID: 4188711491003056, guid: 648afe975c1928a449f6fe22c847e9d4, type: 2}
      propertyPath: m_LocalPosition.x
      value: -0.865
      objectReference: {fileID: 0}
    - target: {fileID: 4188711491003056, guid: 648afe975c1928a449f6fe22c847e9d4, type: 2}
      propertyPath: m_LocalPosition.y
      value: 0.282
      objectReference: {fileID: 0}
    - target: {fileID: 4188711491003056, guid: 648afe975c1928a449f6fe22c847e9d4, type: 2}
      propertyPath: m_LocalPosition.z
      value: -1.462
      objectReference: {fileID: 0}
    - target: {fileID: 4188711491003056, guid: 648afe975c1928a449f6fe22c847e9d4, type: 2}
      propertyPath: m_LocalRotation.x
      value: 0
      objectReference: {fileID: 0}
    - target: {fileID: 4188711491003056, guid: 648afe975c1928a449f6fe22c847e9d4, type: 2}
      propertyPath: m_LocalRotation.y
      value: -0.7071068
      objectReference: {fileID: 0}
    - target: {fileID: 4188711491003056, guid: 648afe975c1928a449f6fe22c847e9d4, type: 2}
      propertyPath: m_LocalRotation.z
      value: 0
      objectReference: {fileID: 0}
    - target: {fileID: 4188711491003056, guid: 648afe975c1928a449f6fe22c847e9d4, type: 2}
      propertyPath: m_LocalRotation.w
      value: 0.7071068
      objectReference: {fileID: 0}
    - target: {fileID: 4188711491003056, guid: 648afe975c1928a449f6fe22c847e9d4, type: 2}
      propertyPath: m_RootOrder
      value: 1
      objectReference: {fileID: 0}
    m_RemovedComponents: []
  m_ParentPrefab: {fileID: 100100000, guid: 648afe975c1928a449f6fe22c847e9d4, type: 2}
  m_IsPrefabParent: 0
--- !u!4 &129753402 stripped
Transform:
  m_PrefabParentObject: {fileID: 4849268863190318, guid: ad56cdfae0f9dc64fb10061a01ab3249,
    type: 2}
  m_PrefabInternal: {fileID: 694678148}
--- !u!1 &182069782
GameObject:
  m_ObjectHideFlags: 0
  m_PrefabParentObject: {fileID: 0}
  m_PrefabInternal: {fileID: 0}
  serializedVersion: 5
  m_Component:
  - component: {fileID: 182069783}
  m_Layer: 0
  m_Name: Managers
  m_TagString: Untagged
  m_Icon: {fileID: 0}
  m_NavMeshLayer: 0
  m_StaticEditorFlags: 0
  m_IsActive: 1
--- !u!4 &182069783
Transform:
  m_ObjectHideFlags: 0
  m_PrefabParentObject: {fileID: 0}
  m_PrefabInternal: {fileID: 0}
  m_GameObject: {fileID: 182069782}
  m_LocalRotation: {x: 0, y: 0, z: 0, w: 1}
  m_LocalPosition: {x: 0, y: 0, z: 0}
  m_LocalScale: {x: 1, y: 1, z: 1}
  m_Children:
  - {fileID: 1376648323}
  m_Father: {fileID: 0}
  m_RootOrder: 3
  m_LocalEulerAnglesHint: {x: 0, y: 0, z: 0}
--- !u!4 &191035806 stripped
Transform:
  m_PrefabParentObject: {fileID: 4554113510540562, guid: 907101215265dd744b7d5cb30b862a75,
    type: 2}
  m_PrefabInternal: {fileID: 886246288}
--- !u!1 &214010758
GameObject:
  m_ObjectHideFlags: 0
  m_PrefabParentObject: {fileID: 1809441514131186, guid: 648afe975c1928a449f6fe22c847e9d4,
    type: 2}
  m_PrefabInternal: {fileID: 0}
  serializedVersion: 5
  m_Component:
  - component: {fileID: 214010761}
  - component: {fileID: 214010760}
  - component: {fileID: 214010759}
  m_Layer: 0
  m_Name: 3DTextPrefab (1)
  m_TagString: Untagged
  m_Icon: {fileID: 0}
  m_NavMeshLayer: 0
  m_StaticEditorFlags: 0
  m_IsActive: 1
--- !u!102 &214010759
TextMesh:
  serializedVersion: 3
  m_ObjectHideFlags: 0
  m_PrefabParentObject: {fileID: 102903461425930486, guid: 648afe975c1928a449f6fe22c847e9d4,
    type: 2}
  m_PrefabInternal: {fileID: 0}
  m_GameObject: {fileID: 214010758}
  m_Text: 'Use grab button to pick up the objects

    Use thumbstick for teleport and rotation'
  m_OffsetZ: 0
  m_CharacterSize: 1
  m_LineSpacing: 1
  m_Anchor: 3
  m_Alignment: 0
  m_TabSize: 4
  m_FontSize: 500
  m_FontStyle: 0
  m_RichText: 1
  m_Font: {fileID: 12800000, guid: 2a056e2bb89e0134daaf49e5f183e5dc, type: 3}
  m_Color:
    serializedVersion: 2
    rgba: 4278190080
--- !u!23 &214010760
MeshRenderer:
  m_ObjectHideFlags: 0
  m_PrefabParentObject: {fileID: 23301685674382882, guid: 648afe975c1928a449f6fe22c847e9d4,
    type: 2}
  m_PrefabInternal: {fileID: 0}
  m_GameObject: {fileID: 214010758}
  m_Enabled: 1
  m_CastShadows: 1
  m_ReceiveShadows: 1
  m_DynamicOccludee: 1
  m_MotionVectors: 1
  m_LightProbeUsage: 1
  m_ReflectionProbeUsage: 1
  m_Materials:
  - {fileID: 2100000, guid: 2a056e2bb89e0134daaf49e5f183e5dc, type: 3}
  m_StaticBatchInfo:
    firstSubMesh: 0
    subMeshCount: 0
  m_StaticBatchRoot: {fileID: 0}
  m_ProbeAnchor: {fileID: 0}
  m_LightProbeVolumeOverride: {fileID: 0}
  m_ScaleInLightmap: 1
  m_PreserveUVs: 0
  m_IgnoreNormalsForChartDetection: 0
  m_ImportantGI: 0
  m_StitchLightmapSeams: 0
  m_SelectedEditorRenderState: 3
  m_MinimumChartSize: 4
  m_AutoUVMaxDistance: 0.5
  m_AutoUVMaxAngle: 89
  m_LightmapParameters: {fileID: 0}
  m_SortingLayerID: 0
  m_SortingLayer: 0
  m_SortingOrder: 0
--- !u!4 &214010761
Transform:
  m_ObjectHideFlags: 0
  m_PrefabParentObject: {fileID: 4186457624140018, guid: 648afe975c1928a449f6fe22c847e9d4,
    type: 2}
  m_PrefabInternal: {fileID: 0}
  m_GameObject: {fileID: 214010758}
  m_LocalRotation: {x: -0, y: -0, z: -0, w: 1}
  m_LocalPosition: {x: -0.07905987, y: 0.275, z: -0.0055975914}
  m_LocalScale: {x: 0.0008700004, y: 0.00087, z: 0.0008700004}
  m_Children: []
  m_Father: {fileID: 1932185148}
  m_RootOrder: 2
  m_LocalEulerAnglesHint: {x: 0, y: 0, z: 0}
--- !u!4 &222768142 stripped
Transform:
  m_PrefabParentObject: {fileID: 4849268863190318, guid: ad56cdfae0f9dc64fb10061a01ab3249,
    type: 2}
  m_PrefabInternal: {fileID: 1981326787}
--- !u!1 &247530703
GameObject:
  m_ObjectHideFlags: 0
  m_PrefabParentObject: {fileID: 1809441514131186, guid: 648afe975c1928a449f6fe22c847e9d4,
    type: 2}
  m_PrefabInternal: {fileID: 0}
  serializedVersion: 5
  m_Component:
  - component: {fileID: 247530706}
  - component: {fileID: 247530705}
  - component: {fileID: 247530704}
  m_Layer: 0
  m_Name: 3DTextPrefab (3)
  m_TagString: Untagged
  m_Icon: {fileID: 0}
  m_NavMeshLayer: 0
  m_StaticEditorFlags: 0
  m_IsActive: 1
--- !u!102 &247530704
TextMesh:
  serializedVersion: 3
  m_ObjectHideFlags: 0
  m_PrefabParentObject: {fileID: 102903461425930486, guid: 648afe975c1928a449f6fe22c847e9d4,
    type: 2}
  m_PrefabInternal: {fileID: 0}
  m_GameObject: {fileID: 247530703}
  m_Text: GRAB MECHANICS
  m_OffsetZ: 0
  m_CharacterSize: 1
  m_LineSpacing: 1
  m_Anchor: 3
  m_Alignment: 1
  m_TabSize: 4
  m_FontSize: 500
  m_FontStyle: 0
  m_RichText: 1
  m_Font: {fileID: 12800000, guid: 2a056e2bb89e0134daaf49e5f183e5dc, type: 3}
  m_Color:
    serializedVersion: 2
    rgba: 4278190080
--- !u!23 &247530705
MeshRenderer:
  m_ObjectHideFlags: 0
  m_PrefabParentObject: {fileID: 23301685674382882, guid: 648afe975c1928a449f6fe22c847e9d4,
    type: 2}
  m_PrefabInternal: {fileID: 0}
  m_GameObject: {fileID: 247530703}
  m_Enabled: 1
  m_CastShadows: 1
  m_ReceiveShadows: 1
  m_DynamicOccludee: 1
  m_MotionVectors: 1
  m_LightProbeUsage: 1
  m_ReflectionProbeUsage: 1
  m_Materials:
  - {fileID: 2100000, guid: 2a056e2bb89e0134daaf49e5f183e5dc, type: 3}
  m_StaticBatchInfo:
    firstSubMesh: 0
    subMeshCount: 0
  m_StaticBatchRoot: {fileID: 0}
  m_ProbeAnchor: {fileID: 0}
  m_LightProbeVolumeOverride: {fileID: 0}
  m_ScaleInLightmap: 1
  m_PreserveUVs: 0
  m_IgnoreNormalsForChartDetection: 0
  m_ImportantGI: 0
  m_StitchLightmapSeams: 0
  m_SelectedEditorRenderState: 3
  m_MinimumChartSize: 4
  m_AutoUVMaxDistance: 0.5
  m_AutoUVMaxAngle: 89
  m_LightmapParameters: {fileID: 0}
  m_SortingLayerID: 0
  m_SortingLayer: 0
  m_SortingOrder: 0
--- !u!4 &247530706
Transform:
  m_ObjectHideFlags: 0
  m_PrefabParentObject: {fileID: 4186457624140018, guid: 648afe975c1928a449f6fe22c847e9d4,
    type: 2}
  m_PrefabInternal: {fileID: 0}
  m_GameObject: {fileID: 247530703}
  m_LocalRotation: {x: -0, y: -0, z: -0, w: 1}
  m_LocalPosition: {x: -0.07905987, y: 0.456, z: -0.0055975914}
  m_LocalScale: {x: 0.0022100233, y: 0.0022100222, z: 0.0022100233}
  m_Children: []
  m_Father: {fileID: 1932185148}
  m_RootOrder: 1
  m_LocalEulerAnglesHint: {x: 0, y: 0, z: 0}
--- !u!1001 &288059966
Prefab:
  m_ObjectHideFlags: 0
  serializedVersion: 2
  m_Modification:
    m_TransformParent: {fileID: 0}
    m_Modifications:
    - target: {fileID: 4541142303025740, guid: d29bc40b7f3df26479d6a0aac211c355, type: 2}
      propertyPath: m_LocalPosition.x
      value: 0
      objectReference: {fileID: 0}
    - target: {fileID: 4541142303025740, guid: d29bc40b7f3df26479d6a0aac211c355, type: 2}
      propertyPath: m_LocalPosition.y
      value: 0
      objectReference: {fileID: 0}
    - target: {fileID: 4541142303025740, guid: d29bc40b7f3df26479d6a0aac211c355, type: 2}
      propertyPath: m_LocalPosition.z
      value: 0
      objectReference: {fileID: 0}
    - target: {fileID: 4541142303025740, guid: d29bc40b7f3df26479d6a0aac211c355, type: 2}
      propertyPath: m_LocalRotation.x
      value: 0
      objectReference: {fileID: 0}
    - target: {fileID: 4541142303025740, guid: d29bc40b7f3df26479d6a0aac211c355, type: 2}
      propertyPath: m_LocalRotation.y
      value: 0
      objectReference: {fileID: 0}
    - target: {fileID: 4541142303025740, guid: d29bc40b7f3df26479d6a0aac211c355, type: 2}
      propertyPath: m_LocalRotation.z
      value: 0
      objectReference: {fileID: 0}
    - target: {fileID: 4541142303025740, guid: d29bc40b7f3df26479d6a0aac211c355, type: 2}
      propertyPath: m_LocalRotation.w
      value: 1
      objectReference: {fileID: 0}
    - target: {fileID: 4541142303025740, guid: d29bc40b7f3df26479d6a0aac211c355, type: 2}
      propertyPath: m_RootOrder
      value: 2
      objectReference: {fileID: 0}
    - target: {fileID: 1850730992894404, guid: d29bc40b7f3df26479d6a0aac211c355, type: 2}
      propertyPath: m_Name
      value: MixedRealityCameraParent
      objectReference: {fileID: 0}
    - target: {fileID: 114710303647202208, guid: d29bc40b7f3df26479d6a0aac211c355,
        type: 2}
      propertyPath: LeftControllerOverride
      value: 
      objectReference: {fileID: 1745800145629774, guid: 217cbcc3dd09de2418d2df6ccef73ce4,
        type: 2}
    - target: {fileID: 114710303647202208, guid: d29bc40b7f3df26479d6a0aac211c355,
        type: 2}
      propertyPath: RightControllerOverride
      value: 
      objectReference: {fileID: 1745800145629774, guid: 4d7b6568587c37145b128bf3a32179f2,
        type: 2}
    - target: {fileID: 114710303647202208, guid: d29bc40b7f3df26479d6a0aac211c355,
        type: 2}
      propertyPath: AlternateLeftController
      value: 
      objectReference: {fileID: 1745800145629774, guid: 217cbcc3dd09de2418d2df6ccef73ce4,
        type: 2}
    - target: {fileID: 114710303647202208, guid: d29bc40b7f3df26479d6a0aac211c355,
        type: 2}
      propertyPath: AlternateRightController
      value: 
      objectReference: {fileID: 1745800145629774, guid: 4d7b6568587c37145b128bf3a32179f2,
        type: 2}
    - target: {fileID: 114710303647202208, guid: d29bc40b7f3df26479d6a0aac211c355,
        type: 2}
      propertyPath: AlwaysUseAlternateLeftModel
      value: 1
      objectReference: {fileID: 0}
    - target: {fileID: 114710303647202208, guid: d29bc40b7f3df26479d6a0aac211c355,
        type: 2}
      propertyPath: AlwaysUseAlternateRightModel
      value: 1
      objectReference: {fileID: 0}
    m_RemovedComponents: []
  m_ParentPrefab: {fileID: 100100000, guid: d29bc40b7f3df26479d6a0aac211c355, type: 2}
  m_IsPrefabParent: 0
--- !u!1001 &326016337
Prefab:
  m_ObjectHideFlags: 0
  serializedVersion: 2
  m_Modification:
    m_TransformParent: {fileID: 1394125675}
    m_Modifications:
    - target: {fileID: 4182283123029052, guid: 1835dba728c6131409573120a3822449, type: 2}
      propertyPath: m_LocalPosition.x
      value: 0.367
      objectReference: {fileID: 0}
    - target: {fileID: 4182283123029052, guid: 1835dba728c6131409573120a3822449, type: 2}
      propertyPath: m_LocalPosition.y
      value: 0.2823577
      objectReference: {fileID: 0}
    - target: {fileID: 4182283123029052, guid: 1835dba728c6131409573120a3822449, type: 2}
      propertyPath: m_LocalPosition.z
      value: -0.077
      objectReference: {fileID: 0}
    - target: {fileID: 4182283123029052, guid: 1835dba728c6131409573120a3822449, type: 2}
      propertyPath: m_LocalRotation.x
      value: -0
      objectReference: {fileID: 0}
    - target: {fileID: 4182283123029052, guid: 1835dba728c6131409573120a3822449, type: 2}
      propertyPath: m_LocalRotation.y
      value: -0
      objectReference: {fileID: 0}
    - target: {fileID: 4182283123029052, guid: 1835dba728c6131409573120a3822449, type: 2}
      propertyPath: m_LocalRotation.z
      value: -0
      objectReference: {fileID: 0}
    - target: {fileID: 4182283123029052, guid: 1835dba728c6131409573120a3822449, type: 2}
      propertyPath: m_LocalRotation.w
      value: 1
      objectReference: {fileID: 0}
    - target: {fileID: 4182283123029052, guid: 1835dba728c6131409573120a3822449, type: 2}
      propertyPath: m_RootOrder
      value: 0
      objectReference: {fileID: 0}
    m_RemovedComponents: []
  m_ParentPrefab: {fileID: 100100000, guid: 1835dba728c6131409573120a3822449, type: 2}
  m_IsPrefabParent: 0
--- !u!1 &410890924
GameObject:
  m_ObjectHideFlags: 0
  m_PrefabParentObject: {fileID: 0}
  m_PrefabInternal: {fileID: 0}
  serializedVersion: 5
  m_Component:
  - component: {fileID: 410890925}
  - component: {fileID: 410890926}
  m_Layer: 0
  m_Name: MRTK_Logo
  m_TagString: Untagged
  m_Icon: {fileID: 0}
  m_NavMeshLayer: 0
  m_StaticEditorFlags: 0
  m_IsActive: 1
--- !u!4 &410890925
Transform:
  m_ObjectHideFlags: 0
  m_PrefabParentObject: {fileID: 0}
  m_PrefabInternal: {fileID: 0}
  m_GameObject: {fileID: 410890924}
  m_LocalRotation: {x: -0, y: -0.7071068, z: -0, w: 0.7071068}
  m_LocalPosition: {x: 0.5279998, y: 0.040877182, z: 0.02163174}
  m_LocalScale: {x: 0.022711141, y: 0.07016962, z: 0.050395455}
  m_Children: []
  m_Father: {fileID: 521861721}
  m_RootOrder: 0
  m_LocalEulerAnglesHint: {x: 0, y: 90, z: 0}
--- !u!212 &410890926
SpriteRenderer:
  m_ObjectHideFlags: 0
  m_PrefabParentObject: {fileID: 0}
  m_PrefabInternal: {fileID: 0}
  m_GameObject: {fileID: 410890924}
  m_Enabled: 1
  m_CastShadows: 0
  m_ReceiveShadows: 0
  m_DynamicOccludee: 1
  m_MotionVectors: 1
  m_LightProbeUsage: 1
  m_ReflectionProbeUsage: 1
  m_Materials:
  - {fileID: 10754, guid: 0000000000000000f000000000000000, type: 0}
  m_StaticBatchInfo:
    firstSubMesh: 0
    subMeshCount: 0
  m_StaticBatchRoot: {fileID: 0}
  m_ProbeAnchor: {fileID: 0}
  m_LightProbeVolumeOverride: {fileID: 0}
  m_ScaleInLightmap: 1
  m_PreserveUVs: 0
  m_IgnoreNormalsForChartDetection: 0
  m_ImportantGI: 0
  m_StitchLightmapSeams: 0
  m_SelectedEditorRenderState: 0
  m_MinimumChartSize: 4
  m_AutoUVMaxDistance: 0.5
  m_AutoUVMaxAngle: 89
  m_LightmapParameters: {fileID: 0}
  m_SortingLayerID: 0
  m_SortingLayer: 0
  m_SortingOrder: 0
  m_Sprite: {fileID: 21300000, guid: f721996453d888a4db83f0f9f1a4eb7c, type: 3}
  m_Color: {r: 1, g: 1, b: 1, a: 1}
  m_FlipX: 0
  m_FlipY: 0
  m_DrawMode: 0
  m_Size: {x: 20, y: 7.48}
  m_AdaptiveModeThreshold: 0.5
  m_SpriteTileMode: 0
  m_WasSpriteAssigned: 1
  m_MaskInteraction: 0
--- !u!1 &459227680
GameObject:
  m_ObjectHideFlags: 0
  m_PrefabParentObject: {fileID: 0}
  m_PrefabInternal: {fileID: 0}
  serializedVersion: 5
  m_Component:
  - component: {fileID: 459227682}
  - component: {fileID: 459227681}
  m_Layer: 0
  m_Name: MRTK_Logo
  m_TagString: Untagged
  m_Icon: {fileID: 0}
  m_NavMeshLayer: 0
  m_StaticEditorFlags: 0
  m_IsActive: 1
--- !u!212 &459227681
SpriteRenderer:
  m_ObjectHideFlags: 0
  m_PrefabParentObject: {fileID: 0}
  m_PrefabInternal: {fileID: 0}
  m_GameObject: {fileID: 459227680}
  m_Enabled: 1
  m_CastShadows: 0
  m_ReceiveShadows: 0
  m_DynamicOccludee: 1
  m_MotionVectors: 1
  m_LightProbeUsage: 1
  m_ReflectionProbeUsage: 1
  m_Materials:
  - {fileID: 10754, guid: 0000000000000000f000000000000000, type: 0}
  m_StaticBatchInfo:
    firstSubMesh: 0
    subMeshCount: 0
  m_StaticBatchRoot: {fileID: 0}
  m_ProbeAnchor: {fileID: 0}
  m_LightProbeVolumeOverride: {fileID: 0}
  m_ScaleInLightmap: 1
  m_PreserveUVs: 0
  m_IgnoreNormalsForChartDetection: 0
  m_ImportantGI: 0
  m_StitchLightmapSeams: 0
  m_SelectedEditorRenderState: 0
  m_MinimumChartSize: 4
  m_AutoUVMaxDistance: 0.5
  m_AutoUVMaxAngle: 89
  m_LightmapParameters: {fileID: 0}
  m_SortingLayerID: 0
  m_SortingLayer: 0
  m_SortingOrder: 0
  m_Sprite: {fileID: 21300000, guid: f721996453d888a4db83f0f9f1a4eb7c, type: 3}
  m_Color: {r: 1, g: 1, b: 1, a: 1}
  m_FlipX: 0
  m_FlipY: 0
  m_DrawMode: 0
  m_Size: {x: 20, y: 7.48}
  m_AdaptiveModeThreshold: 0.5
  m_SpriteTileMode: 0
  m_WasSpriteAssigned: 1
  m_MaskInteraction: 0
--- !u!4 &459227682
Transform:
  m_ObjectHideFlags: 0
  m_PrefabParentObject: {fileID: 0}
  m_PrefabInternal: {fileID: 0}
  m_GameObject: {fileID: 459227680}
  m_LocalRotation: {x: -0, y: -0.7071068, z: -0, w: 0.7071068}
  m_LocalPosition: {x: 0.5279998, y: 0.040877182, z: 0.02163174}
  m_LocalScale: {x: 0.022711141, y: 0.07016962, z: 0.050395455}
  m_Children: []
  m_Father: {fileID: 1389811191}
  m_RootOrder: 0
  m_LocalEulerAnglesHint: {x: 0, y: 90, z: 0}
--- !u!1 &521861720
GameObject:
  m_ObjectHideFlags: 0
  m_PrefabParentObject: {fileID: 1676796405072838, guid: 96fefa1d533a06841a416ee9fa81fae0,
    type: 2}
  m_PrefabInternal: {fileID: 0}
  serializedVersion: 5
  m_Component:
  - component: {fileID: 521861721}
  - component: {fileID: 521861725}
  - component: {fileID: 521861724}
  - component: {fileID: 521861723}
  - component: {fileID: 521861722}
  m_Layer: 0
  m_Name: Table
  m_TagString: Untagged
  m_Icon: {fileID: 0}
  m_NavMeshLayer: 0
  m_StaticEditorFlags: 0
  m_IsActive: 1
--- !u!4 &521861721
Transform:
  m_ObjectHideFlags: 0
  m_PrefabParentObject: {fileID: 4873667944872804, guid: 96fefa1d533a06841a416ee9fa81fae0,
    type: 2}
  m_PrefabInternal: {fileID: 0}
  m_GameObject: {fileID: 521861720}
  m_LocalRotation: {x: -0, y: -0, z: -0, w: 1}
  m_LocalPosition: {x: -0.9794376, y: -0.19, z: -0.6650003}
  m_LocalScale: {x: 0.60000044, y: 0.71818995, z: 2.218972}
  m_Children:
  - {fileID: 410890925}
  m_Father: {fileID: 810663116}
  m_RootOrder: 0
  m_LocalEulerAnglesHint: {x: 0, y: 180, z: 0}
--- !u!54 &521861722
Rigidbody:
  m_ObjectHideFlags: 0
  m_PrefabParentObject: {fileID: 0}
  m_PrefabInternal: {fileID: 0}
  m_GameObject: {fileID: 521861720}
  serializedVersion: 2
  m_Mass: 100
  m_Drag: 0
  m_AngularDrag: 0.05
  m_UseGravity: 0
  m_IsKinematic: 1
  m_Interpolate: 0
  m_Constraints: 126
  m_CollisionDetection: 0
--- !u!23 &521861723
MeshRenderer:
  m_ObjectHideFlags: 0
  m_PrefabParentObject: {fileID: 23264933688451526, guid: 96fefa1d533a06841a416ee9fa81fae0,
    type: 2}
  m_PrefabInternal: {fileID: 0}
  m_GameObject: {fileID: 521861720}
  m_Enabled: 1
  m_CastShadows: 1
  m_ReceiveShadows: 1
  m_DynamicOccludee: 1
  m_MotionVectors: 1
  m_LightProbeUsage: 1
  m_ReflectionProbeUsage: 1
  m_Materials:
  - {fileID: 2100000, guid: 4bd0d08cd02fb42488c7fd1abfa0203f, type: 2}
  m_StaticBatchInfo:
    firstSubMesh: 0
    subMeshCount: 0
  m_StaticBatchRoot: {fileID: 0}
  m_ProbeAnchor: {fileID: 0}
  m_LightProbeVolumeOverride: {fileID: 0}
  m_ScaleInLightmap: 1
  m_PreserveUVs: 1
  m_IgnoreNormalsForChartDetection: 0
  m_ImportantGI: 0
  m_StitchLightmapSeams: 0
  m_SelectedEditorRenderState: 3
  m_MinimumChartSize: 4
  m_AutoUVMaxDistance: 0.5
  m_AutoUVMaxAngle: 89
  m_LightmapParameters: {fileID: 0}
  m_SortingLayerID: 0
  m_SortingLayer: 0
  m_SortingOrder: 0
--- !u!65 &521861724
BoxCollider:
  m_ObjectHideFlags: 0
  m_PrefabParentObject: {fileID: 65011898408323852, guid: 96fefa1d533a06841a416ee9fa81fae0,
    type: 2}
  m_PrefabInternal: {fileID: 0}
  m_GameObject: {fileID: 521861720}
  m_Material: {fileID: 0}
  m_IsTrigger: 0
  m_Enabled: 1
  serializedVersion: 2
  m_Size: {x: 1, y: 1, z: 1}
  m_Center: {x: 0, y: 0, z: 0}
--- !u!33 &521861725
MeshFilter:
  m_ObjectHideFlags: 0
  m_PrefabParentObject: {fileID: 33061434417795008, guid: 96fefa1d533a06841a416ee9fa81fae0,
    type: 2}
  m_PrefabInternal: {fileID: 0}
  m_GameObject: {fileID: 521861720}
  m_Mesh: {fileID: 10202, guid: 0000000000000000e000000000000000, type: 0}
--- !u!1001 &627597920
Prefab:
  m_ObjectHideFlags: 0
  serializedVersion: 2
  m_Modification:
    m_TransformParent: {fileID: 810663116}
    m_Modifications:
    - target: {fileID: 4319907700213362, guid: 5ed4339889c32f24798ec1f74ea09462, type: 2}
      propertyPath: m_LocalPosition.x
      value: -0.882
      objectReference: {fileID: 0}
    - target: {fileID: 4319907700213362, guid: 5ed4339889c32f24798ec1f74ea09462, type: 2}
      propertyPath: m_LocalPosition.y
      value: 0.296
      objectReference: {fileID: 0}
    - target: {fileID: 4319907700213362, guid: 5ed4339889c32f24798ec1f74ea09462, type: 2}
      propertyPath: m_LocalPosition.z
      value: -0.676
      objectReference: {fileID: 0}
    - target: {fileID: 4319907700213362, guid: 5ed4339889c32f24798ec1f74ea09462, type: 2}
      propertyPath: m_LocalRotation.x
      value: 0
      objectReference: {fileID: 0}
    - target: {fileID: 4319907700213362, guid: 5ed4339889c32f24798ec1f74ea09462, type: 2}
      propertyPath: m_LocalRotation.y
      value: 0
      objectReference: {fileID: 0}
    - target: {fileID: 4319907700213362, guid: 5ed4339889c32f24798ec1f74ea09462, type: 2}
      propertyPath: m_LocalRotation.z
      value: 0
      objectReference: {fileID: 0}
    - target: {fileID: 4319907700213362, guid: 5ed4339889c32f24798ec1f74ea09462, type: 2}
      propertyPath: m_LocalRotation.w
      value: 1
      objectReference: {fileID: 0}
    - target: {fileID: 4319907700213362, guid: 5ed4339889c32f24798ec1f74ea09462, type: 2}
      propertyPath: m_RootOrder
      value: 4
      objectReference: {fileID: 0}
    m_RemovedComponents: []
  m_ParentPrefab: {fileID: 100100000, guid: 5ed4339889c32f24798ec1f74ea09462, type: 2}
  m_IsPrefabParent: 0
--- !u!4 &682918607 stripped
Transform:
  m_PrefabParentObject: {fileID: 4182283123029052, guid: 1835dba728c6131409573120a3822449,
    type: 2}
  m_PrefabInternal: {fileID: 326016337}
--- !u!1001 &694678148
Prefab:
  m_ObjectHideFlags: 0
  serializedVersion: 2
  m_Modification:
    m_TransformParent: {fileID: 1394125675}
    m_Modifications:
    - target: {fileID: 4849268863190318, guid: ad56cdfae0f9dc64fb10061a01ab3249, type: 2}
      propertyPath: m_LocalPosition.x
      value: 0.3
      objectReference: {fileID: 0}
    - target: {fileID: 4849268863190318, guid: ad56cdfae0f9dc64fb10061a01ab3249, type: 2}
      propertyPath: m_LocalPosition.y
      value: 0.22335768
      objectReference: {fileID: 0}
    - target: {fileID: 4849268863190318, guid: ad56cdfae0f9dc64fb10061a01ab3249, type: 2}
      propertyPath: m_LocalPosition.z
      value: -0.722
      objectReference: {fileID: 0}
    - target: {fileID: 4849268863190318, guid: ad56cdfae0f9dc64fb10061a01ab3249, type: 2}
      propertyPath: m_LocalRotation.x
      value: -0
      objectReference: {fileID: 0}
    - target: {fileID: 4849268863190318, guid: ad56cdfae0f9dc64fb10061a01ab3249, type: 2}
      propertyPath: m_LocalRotation.y
      value: -0
      objectReference: {fileID: 0}
    - target: {fileID: 4849268863190318, guid: ad56cdfae0f9dc64fb10061a01ab3249, type: 2}
      propertyPath: m_LocalRotation.z
      value: -0
      objectReference: {fileID: 0}
    - target: {fileID: 4849268863190318, guid: ad56cdfae0f9dc64fb10061a01ab3249, type: 2}
      propertyPath: m_LocalRotation.w
      value: 1
      objectReference: {fileID: 0}
    - target: {fileID: 4849268863190318, guid: ad56cdfae0f9dc64fb10061a01ab3249, type: 2}
      propertyPath: m_RootOrder
      value: 8
      objectReference: {fileID: 0}
    - target: {fileID: 102627794798321348, guid: ad56cdfae0f9dc64fb10061a01ab3249,
        type: 2}
      propertyPath: m_Text
      value: 'No

        Throw'
      objectReference: {fileID: 0}
    m_RemovedComponents:
    - {fileID: 114547182181813204, guid: ad56cdfae0f9dc64fb10061a01ab3249, type: 2}
    - {fileID: 114918539871768754, guid: ad56cdfae0f9dc64fb10061a01ab3249, type: 2}
  m_ParentPrefab: {fileID: 100100000, guid: ad56cdfae0f9dc64fb10061a01ab3249, type: 2}
  m_IsPrefabParent: 0
--- !u!4 &727213712 stripped
Transform:
  m_PrefabParentObject: {fileID: 4080119877530924, guid: 569e6e7d4dff2314dad9c83b1bf21a9f,
    type: 2}
  m_PrefabInternal: {fileID: 785462427}
--- !u!4 &732513495 stripped
Transform:
  m_PrefabParentObject: {fileID: 4188711491003056, guid: 648afe975c1928a449f6fe22c847e9d4,
    type: 2}
  m_PrefabInternal: {fileID: 49427802}
--- !u!1001 &742899119
Prefab:
  m_ObjectHideFlags: 0
  serializedVersion: 2
  m_Modification:
    m_TransformParent: {fileID: 1394125675}
    m_Modifications:
    - target: {fileID: 4294232868638644, guid: 20e083692ef96a4408cb22926070e054, type: 2}
      propertyPath: m_LocalPosition.x
      value: 0.172
      objectReference: {fileID: 0}
    - target: {fileID: 4294232868638644, guid: 20e083692ef96a4408cb22926070e054, type: 2}
      propertyPath: m_LocalPosition.y
      value: 0.17839575
      objectReference: {fileID: 0}
    - target: {fileID: 4294232868638644, guid: 20e083692ef96a4408cb22926070e054, type: 2}
      propertyPath: m_LocalPosition.z
      value: -0.422
      objectReference: {fileID: 0}
    - target: {fileID: 4294232868638644, guid: 20e083692ef96a4408cb22926070e054, type: 2}
      propertyPath: m_LocalRotation.x
      value: -0
      objectReference: {fileID: 0}
    - target: {fileID: 4294232868638644, guid: 20e083692ef96a4408cb22926070e054, type: 2}
      propertyPath: m_LocalRotation.y
      value: -0
      objectReference: {fileID: 0}
    - target: {fileID: 4294232868638644, guid: 20e083692ef96a4408cb22926070e054, type: 2}
      propertyPath: m_LocalRotation.z
      value: -0
      objectReference: {fileID: 0}
    - target: {fileID: 4294232868638644, guid: 20e083692ef96a4408cb22926070e054, type: 2}
      propertyPath: m_LocalRotation.w
      value: 1
      objectReference: {fileID: 0}
    - target: {fileID: 4294232868638644, guid: 20e083692ef96a4408cb22926070e054, type: 2}
      propertyPath: m_RootOrder
      value: 2
      objectReference: {fileID: 0}
    - target: {fileID: 145249200264882530, guid: 20e083692ef96a4408cb22926070e054,
        type: 2}
      propertyPath: m_ConnectedBody
      value: 
      objectReference: {fileID: 2131419153}
    - target: {fileID: 145463896805346216, guid: 20e083692ef96a4408cb22926070e054,
        type: 2}
      propertyPath: m_ConnectedBody
      value: 
      objectReference: {fileID: 1420219432}
    m_RemovedComponents: []
  m_ParentPrefab: {fileID: 100100000, guid: 20e083692ef96a4408cb22926070e054, type: 2}
  m_IsPrefabParent: 0
--- !u!4 &772249290 stripped
Transform:
  m_PrefabParentObject: {fileID: 4966411987511600, guid: 133fc5a3f78368b418380475c982b2af,
    type: 2}
  m_PrefabInternal: {fileID: 1666020808}
--- !u!1001 &785462427
Prefab:
  m_ObjectHideFlags: 0
  serializedVersion: 2
  m_Modification:
    m_TransformParent: {fileID: 810663116}
    m_Modifications:
    - target: {fileID: 4080119877530924, guid: 569e6e7d4dff2314dad9c83b1bf21a9f, type: 2}
      propertyPath: m_LocalPosition.x
      value: -0.938
      objectReference: {fileID: 0}
    - target: {fileID: 4080119877530924, guid: 569e6e7d4dff2314dad9c83b1bf21a9f, type: 2}
      propertyPath: m_LocalPosition.y
      value: 0.288
      objectReference: {fileID: 0}
    - target: {fileID: 4080119877530924, guid: 569e6e7d4dff2314dad9c83b1bf21a9f, type: 2}
      propertyPath: m_LocalPosition.z
      value: -0.332
      objectReference: {fileID: 0}
    - target: {fileID: 4080119877530924, guid: 569e6e7d4dff2314dad9c83b1bf21a9f, type: 2}
      propertyPath: m_LocalRotation.x
      value: 0
      objectReference: {fileID: 0}
    - target: {fileID: 4080119877530924, guid: 569e6e7d4dff2314dad9c83b1bf21a9f, type: 2}
      propertyPath: m_LocalRotation.y
      value: -0.7071068
      objectReference: {fileID: 0}
    - target: {fileID: 4080119877530924, guid: 569e6e7d4dff2314dad9c83b1bf21a9f, type: 2}
      propertyPath: m_LocalRotation.z
      value: 0
      objectReference: {fileID: 0}
    - target: {fileID: 4080119877530924, guid: 569e6e7d4dff2314dad9c83b1bf21a9f, type: 2}
      propertyPath: m_LocalRotation.w
      value: 0.7071068
      objectReference: {fileID: 0}
    - target: {fileID: 4080119877530924, guid: 569e6e7d4dff2314dad9c83b1bf21a9f, type: 2}
      propertyPath: m_RootOrder
      value: 2
      objectReference: {fileID: 0}
    m_RemovedComponents: []
  m_ParentPrefab: {fileID: 100100000, guid: 569e6e7d4dff2314dad9c83b1bf21a9f, type: 2}
  m_IsPrefabParent: 0
--- !u!1 &810663115
GameObject:
  m_ObjectHideFlags: 0
  m_PrefabParentObject: {fileID: 0}
  m_PrefabInternal: {fileID: 0}
  serializedVersion: 5
  m_Component:
  - component: {fileID: 810663116}
  m_Layer: 0
  m_Name: GrabbablesSimple
  m_TagString: Untagged
  m_Icon: {fileID: 0}
  m_NavMeshLayer: 0
  m_StaticEditorFlags: 0
  m_IsActive: 1
--- !u!4 &810663116
Transform:
  m_ObjectHideFlags: 0
  m_PrefabParentObject: {fileID: 0}
  m_PrefabInternal: {fileID: 0}
  m_GameObject: {fileID: 810663115}
  m_LocalRotation: {x: -0, y: 0.7071068, z: -0, w: 0.7071068}
  m_LocalPosition: {x: -0.547, y: -0.4, z: 0.70956236}
  m_LocalScale: {x: 1, y: 1, z: 1}
  m_Children:
  - {fileID: 521861721}
  - {fileID: 732513495}
  - {fileID: 727213712}
  - {fileID: 1317806054}
  - {fileID: 929469702}
  - {fileID: 191035806}
  m_Father: {fileID: 1926473061}
  m_RootOrder: 0
  m_LocalEulerAnglesHint: {x: 0, y: 90, z: 0}
--- !u!1001 &826688005
Prefab:
  m_ObjectHideFlags: 0
  serializedVersion: 2
  m_Modification:
    m_TransformParent: {fileID: 0}
    m_Modifications:
    - target: {fileID: 4000013535415816, guid: b2db04283121ca74495c2ee000fb4243, type: 2}
      propertyPath: m_LocalPosition.x
      value: 0
      objectReference: {fileID: 0}
    - target: {fileID: 4000013535415816, guid: b2db04283121ca74495c2ee000fb4243, type: 2}
      propertyPath: m_LocalPosition.y
      value: 0
      objectReference: {fileID: 0}
    - target: {fileID: 4000013535415816, guid: b2db04283121ca74495c2ee000fb4243, type: 2}
      propertyPath: m_LocalPosition.z
      value: 0
      objectReference: {fileID: 0}
    - target: {fileID: 4000013535415816, guid: b2db04283121ca74495c2ee000fb4243, type: 2}
      propertyPath: m_LocalRotation.x
      value: 0
      objectReference: {fileID: 0}
    - target: {fileID: 4000013535415816, guid: b2db04283121ca74495c2ee000fb4243, type: 2}
      propertyPath: m_LocalRotation.y
      value: 0
      objectReference: {fileID: 0}
    - target: {fileID: 4000013535415816, guid: b2db04283121ca74495c2ee000fb4243, type: 2}
      propertyPath: m_LocalRotation.z
      value: 0
      objectReference: {fileID: 0}
    - target: {fileID: 4000013535415816, guid: b2db04283121ca74495c2ee000fb4243, type: 2}
      propertyPath: m_LocalRotation.w
      value: 1
      objectReference: {fileID: 0}
    - target: {fileID: 4000013535415816, guid: b2db04283121ca74495c2ee000fb4243, type: 2}
      propertyPath: m_RootOrder
      value: 1
      objectReference: {fileID: 0}
    m_RemovedComponents: []
  m_ParentPrefab: {fileID: 100100000, guid: b2db04283121ca74495c2ee000fb4243, type: 2}
  m_IsPrefabParent: 0
--- !u!114 &826688006 stripped
MonoBehaviour:
  m_PrefabParentObject: {fileID: 114000013851064060, guid: b2db04283121ca74495c2ee000fb4243,
    type: 2}
  m_PrefabInternal: {fileID: 826688005}
  m_Script: {fileID: 11500000, guid: afa1ae235bc6cfa43addd1435e2fd822, type: 3}
--- !u!1001 &886246288
Prefab:
  m_ObjectHideFlags: 0
  serializedVersion: 2
  m_Modification:
    m_TransformParent: {fileID: 810663116}
    m_Modifications:
    - target: {fileID: 4554113510540562, guid: 907101215265dd744b7d5cb30b862a75, type: 2}
      propertyPath: m_LocalPosition.x
      value: -0.976
      objectReference: {fileID: 0}
    - target: {fileID: 4554113510540562, guid: 907101215265dd744b7d5cb30b862a75, type: 2}
      propertyPath: m_LocalPosition.y
      value: 0.249
      objectReference: {fileID: 0}
    - target: {fileID: 4554113510540562, guid: 907101215265dd744b7d5cb30b862a75, type: 2}
      propertyPath: m_LocalPosition.z
      value: -1.102
      objectReference: {fileID: 0}
    - target: {fileID: 4554113510540562, guid: 907101215265dd744b7d5cb30b862a75, type: 2}
      propertyPath: m_LocalRotation.x
      value: 0
      objectReference: {fileID: 0}
    - target: {fileID: 4554113510540562, guid: 907101215265dd744b7d5cb30b862a75, type: 2}
      propertyPath: m_LocalRotation.y
      value: 0
      objectReference: {fileID: 0}
    - target: {fileID: 4554113510540562, guid: 907101215265dd744b7d5cb30b862a75, type: 2}
      propertyPath: m_LocalRotation.z
      value: 0
      objectReference: {fileID: 0}
    - target: {fileID: 4554113510540562, guid: 907101215265dd744b7d5cb30b862a75, type: 2}
      propertyPath: m_LocalRotation.w
      value: 1
      objectReference: {fileID: 0}
    - target: {fileID: 4554113510540562, guid: 907101215265dd744b7d5cb30b862a75, type: 2}
      propertyPath: m_RootOrder
      value: 5
      objectReference: {fileID: 0}
    - target: {fileID: 54090869859115204, guid: 907101215265dd744b7d5cb30b862a75,
        type: 2}
      propertyPath: m_Mass
      value: 0.1
      objectReference: {fileID: 0}
    m_RemovedComponents: []
  m_ParentPrefab: {fileID: 100100000, guid: 907101215265dd744b7d5cb30b862a75, type: 2}
  m_IsPrefabParent: 0
--- !u!4 &929469702 stripped
Transform:
  m_PrefabParentObject: {fileID: 4319907700213362, guid: 5ed4339889c32f24798ec1f74ea09462,
    type: 2}
  m_PrefabInternal: {fileID: 627597920}
--- !u!1 &975866693
GameObject:
  m_ObjectHideFlags: 0
  m_PrefabParentObject: {fileID: 1699392641763190, guid: 6e3dd469acbe6ae47bde1ca66d49fda7,
    type: 2}
  m_PrefabInternal: {fileID: 0}
  serializedVersion: 5
  m_Component:
  - component: {fileID: 975866697}
  - component: {fileID: 975866696}
  - component: {fileID: 975866695}
  - component: {fileID: 975866694}
  m_Layer: 0
  m_Name: Plate
  m_TagString: Untagged
  m_Icon: {fileID: 0}
  m_NavMeshLayer: 0
  m_StaticEditorFlags: 0
  m_IsActive: 1
--- !u!23 &975866694
MeshRenderer:
  m_ObjectHideFlags: 0
  m_PrefabParentObject: {fileID: 23854893143017092, guid: 6e3dd469acbe6ae47bde1ca66d49fda7,
    type: 2}
  m_PrefabInternal: {fileID: 0}
  m_GameObject: {fileID: 975866693}
  m_Enabled: 1
  m_CastShadows: 1
  m_ReceiveShadows: 1
  m_DynamicOccludee: 1
  m_MotionVectors: 1
  m_LightProbeUsage: 1
  m_ReflectionProbeUsage: 1
  m_Materials:
  - {fileID: 10303, guid: 0000000000000000f000000000000000, type: 0}
  m_StaticBatchInfo:
    firstSubMesh: 0
    subMeshCount: 0
  m_StaticBatchRoot: {fileID: 0}
  m_ProbeAnchor: {fileID: 0}
  m_LightProbeVolumeOverride: {fileID: 0}
  m_ScaleInLightmap: 1
  m_PreserveUVs: 1
  m_IgnoreNormalsForChartDetection: 0
  m_ImportantGI: 0
  m_StitchLightmapSeams: 0
  m_SelectedEditorRenderState: 3
  m_MinimumChartSize: 4
  m_AutoUVMaxDistance: 0.5
  m_AutoUVMaxAngle: 89
  m_LightmapParameters: {fileID: 0}
  m_SortingLayerID: 0
  m_SortingLayer: 0
  m_SortingOrder: 0
--- !u!65 &975866695
BoxCollider:
  m_ObjectHideFlags: 0
  m_PrefabParentObject: {fileID: 65850213777155046, guid: 6e3dd469acbe6ae47bde1ca66d49fda7,
    type: 2}
  m_PrefabInternal: {fileID: 0}
  m_GameObject: {fileID: 975866693}
  m_Material: {fileID: 0}
  m_IsTrigger: 0
  m_Enabled: 1
  serializedVersion: 2
  m_Size: {x: 1, y: 1, z: 1}
  m_Center: {x: 0, y: 0, z: 0}
--- !u!33 &975866696
MeshFilter:
  m_ObjectHideFlags: 0
  m_PrefabParentObject: {fileID: 33263432706381212, guid: 6e3dd469acbe6ae47bde1ca66d49fda7,
    type: 2}
  m_PrefabInternal: {fileID: 0}
  m_GameObject: {fileID: 975866693}
  m_Mesh: {fileID: 10202, guid: 0000000000000000e000000000000000, type: 0}
--- !u!4 &975866697
Transform:
  m_ObjectHideFlags: 0
  m_PrefabParentObject: {fileID: 4377154383304766, guid: 6e3dd469acbe6ae47bde1ca66d49fda7,
    type: 2}
  m_PrefabInternal: {fileID: 0}
  m_GameObject: {fileID: 975866693}
  m_LocalRotation: {x: -0, y: 0.7071068, z: -0, w: 0.7071068}
  m_LocalPosition: {x: 0.43594015, y: 0.39381003, z: 0.046402454}
  m_LocalScale: {x: 0.008544072, y: 0.4450501, z: 1.1649611}
  m_Children: []
  m_Father: {fileID: 1932185148}
  m_RootOrder: 3
  m_LocalEulerAnglesHint: {x: 0, y: 0, z: 0}
--- !u!1 &1002827052
GameObject:
  m_ObjectHideFlags: 0
  m_PrefabParentObject: {fileID: 1809441514131186, guid: 648afe975c1928a449f6fe22c847e9d4,
    type: 2}
  m_PrefabInternal: {fileID: 0}
  serializedVersion: 5
  m_Component:
  - component: {fileID: 1002827055}
  - component: {fileID: 1002827054}
  - component: {fileID: 1002827053}
  m_Layer: 0
  m_Name: 3DTextPrefab (2)
  m_TagString: Untagged
  m_Icon: {fileID: 0}
  m_NavMeshLayer: 0
  m_StaticEditorFlags: 0
  m_IsActive: 1
--- !u!102 &1002827053
TextMesh:
  serializedVersion: 3
  m_ObjectHideFlags: 0
  m_PrefabParentObject: {fileID: 102903461425930486, guid: 648afe975c1928a449f6fe22c847e9d4,
    type: 2}
  m_PrefabInternal: {fileID: 0}
  m_GameObject: {fileID: 1002827052}
  m_Text: Motion Controller
  m_OffsetZ: 0
  m_CharacterSize: 1
  m_LineSpacing: 1
  m_Anchor: 3
  m_Alignment: 1
  m_TabSize: 4
  m_FontSize: 500
  m_FontStyle: 0
  m_RichText: 1
  m_Font: {fileID: 12800000, guid: 86574c70442309b45be5a1c37a37a40b, type: 3}
  m_Color:
    serializedVersion: 2
    rgba: 4278190080
--- !u!23 &1002827054
MeshRenderer:
  m_ObjectHideFlags: 0
  m_PrefabParentObject: {fileID: 23301685674382882, guid: 648afe975c1928a449f6fe22c847e9d4,
    type: 2}
  m_PrefabInternal: {fileID: 0}
  m_GameObject: {fileID: 1002827052}
  m_Enabled: 1
  m_CastShadows: 1
  m_ReceiveShadows: 1
  m_DynamicOccludee: 1
  m_MotionVectors: 1
  m_LightProbeUsage: 1
  m_ReflectionProbeUsage: 1
  m_Materials:
  - {fileID: 2100000, guid: 86574c70442309b45be5a1c37a37a40b, type: 3}
  m_StaticBatchInfo:
    firstSubMesh: 0
    subMeshCount: 0
  m_StaticBatchRoot: {fileID: 0}
  m_ProbeAnchor: {fileID: 0}
  m_LightProbeVolumeOverride: {fileID: 0}
  m_ScaleInLightmap: 1
  m_PreserveUVs: 0
  m_IgnoreNormalsForChartDetection: 0
  m_ImportantGI: 0
  m_StitchLightmapSeams: 0
  m_SelectedEditorRenderState: 3
  m_MinimumChartSize: 4
  m_AutoUVMaxDistance: 0.5
  m_AutoUVMaxAngle: 89
  m_LightmapParameters: {fileID: 0}
  m_SortingLayerID: 0
  m_SortingLayer: 0
  m_SortingOrder: 0
--- !u!4 &1002827055
Transform:
  m_ObjectHideFlags: 0
  m_PrefabParentObject: {fileID: 4186457624140018, guid: 648afe975c1928a449f6fe22c847e9d4,
    type: 2}
  m_PrefabInternal: {fileID: 0}
  m_GameObject: {fileID: 1002827052}
  m_LocalRotation: {x: -0, y: -0, z: -0, w: 1}
  m_LocalPosition: {x: -0.07905987, y: 0.54299986, z: -0.0055975914}
  m_LocalScale: {x: 0.0010215042, y: 0.0010215035, z: 0.0010215039}
  m_Children: []
  m_Father: {fileID: 1932185148}
  m_RootOrder: 0
  m_LocalEulerAnglesHint: {x: 0, y: 0, z: 0}
--- !u!4 &1191366232 stripped
Transform:
  m_PrefabParentObject: {fileID: 4294232868638644, guid: 20e083692ef96a4408cb22926070e054,
    type: 2}
  m_PrefabInternal: {fileID: 742899119}
--- !u!1001 &1228057849
Prefab:
  m_ObjectHideFlags: 0
  serializedVersion: 2
  m_Modification:
    m_TransformParent: {fileID: 810663116}
    m_Modifications:
    - target: {fileID: 4204093046706238, guid: 93203be7a7d93e54bbf0a9f5b8fda3fd, type: 2}
      propertyPath: m_LocalPosition.x
      value: -0.802
      objectReference: {fileID: 0}
    - target: {fileID: 4204093046706238, guid: 93203be7a7d93e54bbf0a9f5b8fda3fd, type: 2}
      propertyPath: m_LocalPosition.y
      value: 0.277
      objectReference: {fileID: 0}
    - target: {fileID: 4204093046706238, guid: 93203be7a7d93e54bbf0a9f5b8fda3fd, type: 2}
      propertyPath: m_LocalPosition.z
      value: 0.076
      objectReference: {fileID: 0}
    - target: {fileID: 4204093046706238, guid: 93203be7a7d93e54bbf0a9f5b8fda3fd, type: 2}
      propertyPath: m_LocalRotation.x
      value: 0
      objectReference: {fileID: 0}
    - target: {fileID: 4204093046706238, guid: 93203be7a7d93e54bbf0a9f5b8fda3fd, type: 2}
      propertyPath: m_LocalRotation.y
      value: 0
      objectReference: {fileID: 0}
    - target: {fileID: 4204093046706238, guid: 93203be7a7d93e54bbf0a9f5b8fda3fd, type: 2}
      propertyPath: m_LocalRotation.z
      value: 0
      objectReference: {fileID: 0}
    - target: {fileID: 4204093046706238, guid: 93203be7a7d93e54bbf0a9f5b8fda3fd, type: 2}
      propertyPath: m_LocalRotation.w
      value: 1
      objectReference: {fileID: 0}
    - target: {fileID: 4204093046706238, guid: 93203be7a7d93e54bbf0a9f5b8fda3fd, type: 2}
      propertyPath: m_RootOrder
      value: 3
      objectReference: {fileID: 0}
    m_RemovedComponents: []
  m_ParentPrefab: {fileID: 100100000, guid: 93203be7a7d93e54bbf0a9f5b8fda3fd, type: 2}
  m_IsPrefabParent: 0
--- !u!4 &1317806054 stripped
Transform:
  m_PrefabParentObject: {fileID: 4204093046706238, guid: 93203be7a7d93e54bbf0a9f5b8fda3fd,
    type: 2}
  m_PrefabInternal: {fileID: 1228057849}
--- !u!1001 &1376648322
Prefab:
  m_ObjectHideFlags: 0
  serializedVersion: 2
  m_Modification:
    m_TransformParent: {fileID: 182069783}
    m_Modifications:
    - target: {fileID: 4000011656901714, guid: 3eddd1c29199313478dd3f912bfab2ab, type: 2}
      propertyPath: m_LocalPosition.x
      value: 0
      objectReference: {fileID: 0}
    - target: {fileID: 4000011656901714, guid: 3eddd1c29199313478dd3f912bfab2ab, type: 2}
      propertyPath: m_LocalPosition.y
      value: 0
      objectReference: {fileID: 0}
    - target: {fileID: 4000011656901714, guid: 3eddd1c29199313478dd3f912bfab2ab, type: 2}
      propertyPath: m_LocalPosition.z
      value: 0
      objectReference: {fileID: 0}
    - target: {fileID: 4000011656901714, guid: 3eddd1c29199313478dd3f912bfab2ab, type: 2}
      propertyPath: m_LocalRotation.x
      value: 0
      objectReference: {fileID: 0}
    - target: {fileID: 4000011656901714, guid: 3eddd1c29199313478dd3f912bfab2ab, type: 2}
      propertyPath: m_LocalRotation.y
      value: 0
      objectReference: {fileID: 0}
    - target: {fileID: 4000011656901714, guid: 3eddd1c29199313478dd3f912bfab2ab, type: 2}
      propertyPath: m_LocalRotation.z
      value: 0
      objectReference: {fileID: 0}
    - target: {fileID: 4000011656901714, guid: 3eddd1c29199313478dd3f912bfab2ab, type: 2}
      propertyPath: m_LocalRotation.w
      value: 1
      objectReference: {fileID: 0}
    - target: {fileID: 4000011656901714, guid: 3eddd1c29199313478dd3f912bfab2ab, type: 2}
      propertyPath: m_RootOrder
      value: 0
      objectReference: {fileID: 0}
    - target: {fileID: 114742747811649402, guid: 3eddd1c29199313478dd3f912bfab2ab,
        type: 2}
      propertyPath: Cursor
      value: 
      objectReference: {fileID: 826688006}
    m_RemovedComponents: []
  m_ParentPrefab: {fileID: 100100000, guid: 3eddd1c29199313478dd3f912bfab2ab, type: 2}
  m_IsPrefabParent: 0
--- !u!4 &1376648323 stripped
Transform:
  m_PrefabParentObject: {fileID: 4000011656901714, guid: 3eddd1c29199313478dd3f912bfab2ab,
    type: 2}
  m_PrefabInternal: {fileID: 1376648322}
--- !u!1 &1389811187
GameObject:
  m_ObjectHideFlags: 0
  m_PrefabParentObject: {fileID: 1676796405072838, guid: 96fefa1d533a06841a416ee9fa81fae0,
    type: 2}
  m_PrefabInternal: {fileID: 0}
  serializedVersion: 5
  m_Component:
  - component: {fileID: 1389811191}
  - component: {fileID: 1389811190}
  - component: {fileID: 1389811189}
  - component: {fileID: 1389811188}
  - component: {fileID: 1389811192}
  m_Layer: 0
  m_Name: Table
  m_TagString: Untagged
  m_Icon: {fileID: 0}
  m_NavMeshLayer: 0
  m_StaticEditorFlags: 0
  m_IsActive: 1
--- !u!23 &1389811188
MeshRenderer:
  m_ObjectHideFlags: 0
  m_PrefabParentObject: {fileID: 23264933688451526, guid: 96fefa1d533a06841a416ee9fa81fae0,
    type: 2}
  m_PrefabInternal: {fileID: 0}
  m_GameObject: {fileID: 1389811187}
  m_Enabled: 1
  m_CastShadows: 1
  m_ReceiveShadows: 1
  m_DynamicOccludee: 1
  m_MotionVectors: 1
  m_LightProbeUsage: 1
  m_ReflectionProbeUsage: 1
  m_Materials:
  - {fileID: 2100000, guid: 4bd0d08cd02fb42488c7fd1abfa0203f, type: 2}
  m_StaticBatchInfo:
    firstSubMesh: 0
    subMeshCount: 0
  m_StaticBatchRoot: {fileID: 0}
  m_ProbeAnchor: {fileID: 0}
  m_LightProbeVolumeOverride: {fileID: 0}
  m_ScaleInLightmap: 1
  m_PreserveUVs: 1
  m_IgnoreNormalsForChartDetection: 0
  m_ImportantGI: 0
  m_StitchLightmapSeams: 0
  m_SelectedEditorRenderState: 3
  m_MinimumChartSize: 4
  m_AutoUVMaxDistance: 0.5
  m_AutoUVMaxAngle: 89
  m_LightmapParameters: {fileID: 0}
  m_SortingLayerID: 0
  m_SortingLayer: 0
  m_SortingOrder: 0
--- !u!65 &1389811189
BoxCollider:
  m_ObjectHideFlags: 0
  m_PrefabParentObject: {fileID: 65011898408323852, guid: 96fefa1d533a06841a416ee9fa81fae0,
    type: 2}
  m_PrefabInternal: {fileID: 0}
  m_GameObject: {fileID: 1389811187}
  m_Material: {fileID: 0}
  m_IsTrigger: 0
  m_Enabled: 1
  serializedVersion: 2
  m_Size: {x: 1, y: 1, z: 1}
  m_Center: {x: 0, y: 0, z: 0}
--- !u!33 &1389811190
MeshFilter:
  m_ObjectHideFlags: 0
  m_PrefabParentObject: {fileID: 33061434417795008, guid: 96fefa1d533a06841a416ee9fa81fae0,
    type: 2}
  m_PrefabInternal: {fileID: 0}
  m_GameObject: {fileID: 1389811187}
  m_Mesh: {fileID: 10202, guid: 0000000000000000e000000000000000, type: 0}
--- !u!4 &1389811191
Transform:
  m_ObjectHideFlags: 0
  m_PrefabParentObject: {fileID: 4873667944872804, guid: 96fefa1d533a06841a416ee9fa81fae0,
    type: 2}
  m_PrefabInternal: {fileID: 0}
  m_GameObject: {fileID: 1389811187}
  m_LocalRotation: {x: -0, y: 1, z: -0, w: 0}
  m_LocalPosition: {x: 0.404, y: -0.19, z: -0.662}
  m_LocalScale: {x: 0.6, y: 0.7181936, z: 2.2189744}
  m_Children:
  - {fileID: 459227682}
  m_Father: {fileID: 1394125675}
  m_RootOrder: 10
  m_LocalEulerAnglesHint: {x: 0, y: 180, z: 0}
--- !u!54 &1389811192
Rigidbody:
  m_ObjectHideFlags: 0
  m_PrefabParentObject: {fileID: 0}
  m_PrefabInternal: {fileID: 0}
  m_GameObject: {fileID: 1389811187}
  serializedVersion: 2
  m_Mass: 100
  m_Drag: 0
  m_AngularDrag: 0.05
  m_UseGravity: 0
  m_IsKinematic: 1
  m_Interpolate: 0
  m_Constraints: 126
  m_CollisionDetection: 0
--- !u!1 &1394125674
GameObject:
  m_ObjectHideFlags: 0
  m_PrefabParentObject: {fileID: 0}
  m_PrefabInternal: {fileID: 0}
  serializedVersion: 5
  m_Component:
  - component: {fileID: 1394125675}
  m_Layer: 0
  m_Name: GrabbablesExtra
  m_TagString: Untagged
  m_Icon: {fileID: 0}
  m_NavMeshLayer: 0
  m_StaticEditorFlags: 0
  m_IsActive: 1
--- !u!4 &1394125675
Transform:
  m_ObjectHideFlags: 0
  m_PrefabParentObject: {fileID: 0}
  m_PrefabInternal: {fileID: 0}
  m_GameObject: {fileID: 1394125674}
  m_LocalRotation: {x: -0, y: -0.7071068, z: -0, w: 0.7071068}
  m_LocalPosition: {x: 0.568, y: -0.4, z: 1.289}
  m_LocalScale: {x: 1, y: 1, z: 1}
  m_Children:
  - {fileID: 682918607}
  - {fileID: 1919950359}
  - {fileID: 1191366232}
  - {fileID: 1576293435}
  - {fileID: 2103405542}
  - {fileID: 38770094}
  - {fileID: 222768142}
  - {fileID: 772249290}
  - {fileID: 129753402}
  - {fileID: 2010018273}
  - {fileID: 1389811191}
  m_Father: {fileID: 1926473061}
  m_RootOrder: 1
  m_LocalEulerAnglesHint: {x: 0, y: -90, z: 0}
--- !u!54 &1420219432 stripped
Rigidbody:
  m_PrefabParentObject: {fileID: 54461459156104004, guid: 1835b93e431513349a040fe99c8901d5,
    type: 2}
  m_PrefabInternal: {fileID: 1866637531}
--- !u!4 &1576293435 stripped
Transform:
  m_PrefabParentObject: {fileID: 4948668064207632, guid: 185cbc64b95076149af85f84872cb62b,
    type: 2}
  m_PrefabInternal: {fileID: 1601117858}
--- !u!1001 &1601117858
Prefab:
  m_ObjectHideFlags: 0
  serializedVersion: 2
  m_Modification:
    m_TransformParent: {fileID: 1394125675}
    m_Modifications:
    - target: {fileID: 4948668064207632, guid: 185cbc64b95076149af85f84872cb62b, type: 2}
      propertyPath: m_LocalPosition.x
      value: 0.26760423
      objectReference: {fileID: 0}
    - target: {fileID: 4948668064207632, guid: 185cbc64b95076149af85f84872cb62b, type: 2}
      propertyPath: m_LocalPosition.y
      value: 0.2033577
      objectReference: {fileID: 0}
    - target: {fileID: 4948668064207632, guid: 185cbc64b95076149af85f84872cb62b, type: 2}
      propertyPath: m_LocalPosition.z
      value: -0.51656234
      objectReference: {fileID: 0}
    - target: {fileID: 4948668064207632, guid: 185cbc64b95076149af85f84872cb62b, type: 2}
      propertyPath: m_LocalRotation.x
      value: -0
      objectReference: {fileID: 0}
    - target: {fileID: 4948668064207632, guid: 185cbc64b95076149af85f84872cb62b, type: 2}
      propertyPath: m_LocalRotation.y
      value: -0
      objectReference: {fileID: 0}
    - target: {fileID: 4948668064207632, guid: 185cbc64b95076149af85f84872cb62b, type: 2}
      propertyPath: m_LocalRotation.z
      value: 1
      objectReference: {fileID: 0}
    - target: {fileID: 4948668064207632, guid: 185cbc64b95076149af85f84872cb62b, type: 2}
      propertyPath: m_LocalRotation.w
      value: 0
      objectReference: {fileID: 0}
    - target: {fileID: 4948668064207632, guid: 185cbc64b95076149af85f84872cb62b, type: 2}
      propertyPath: m_RootOrder
      value: 3
      objectReference: {fileID: 0}
    - target: {fileID: 1413440683920042, guid: 185cbc64b95076149af85f84872cb62b, type: 2}
      propertyPath: m_Name
      value: CubeHandle1_front_I
      objectReference: {fileID: 0}
    m_RemovedComponents: []
  m_ParentPrefab: {fileID: 100100000, guid: 185cbc64b95076149af85f84872cb62b, type: 2}
  m_IsPrefabParent: 0
--- !u!1001 &1666020808
Prefab:
  m_ObjectHideFlags: 0
  serializedVersion: 2
  m_Modification:
    m_TransformParent: {fileID: 1394125675}
    m_Modifications:
    - target: {fileID: 4966411987511600, guid: 133fc5a3f78368b418380475c982b2af, type: 2}
      propertyPath: m_LocalPosition.x
      value: 0.261
      objectReference: {fileID: 0}
    - target: {fileID: 4966411987511600, guid: 133fc5a3f78368b418380475c982b2af, type: 2}
      propertyPath: m_LocalPosition.y
      value: 0.22335768
      objectReference: {fileID: 0}
    - target: {fileID: 4966411987511600, guid: 133fc5a3f78368b418380475c982b2af, type: 2}
      propertyPath: m_LocalPosition.z
      value: -1.277
      objectReference: {fileID: 0}
    - target: {fileID: 4966411987511600, guid: 133fc5a3f78368b418380475c982b2af, type: 2}
      propertyPath: m_LocalRotation.x
      value: -0
      objectReference: {fileID: 0}
    - target: {fileID: 4966411987511600, guid: 133fc5a3f78368b418380475c982b2af, type: 2}
      propertyPath: m_LocalRotation.y
      value: -0
      objectReference: {fileID: 0}
    - target: {fileID: 4966411987511600, guid: 133fc5a3f78368b418380475c982b2af, type: 2}
      propertyPath: m_LocalRotation.z
      value: -0
      objectReference: {fileID: 0}
    - target: {fileID: 4966411987511600, guid: 133fc5a3f78368b418380475c982b2af, type: 2}
      propertyPath: m_LocalRotation.w
      value: 1
      objectReference: {fileID: 0}
    - target: {fileID: 4966411987511600, guid: 133fc5a3f78368b418380475c982b2af, type: 2}
      propertyPath: m_RootOrder
      value: 7
      objectReference: {fileID: 0}
    m_RemovedComponents: []
  m_ParentPrefab: {fileID: 100100000, guid: 133fc5a3f78368b418380475c982b2af, type: 2}
  m_IsPrefabParent: 0
--- !u!1001 &1721693543
Prefab:
  m_ObjectHideFlags: 0
  serializedVersion: 2
  m_Modification:
    m_TransformParent: {fileID: 1394125675}
    m_Modifications:
    - target: {fileID: 4409242262092556, guid: f04969aeafe8c464f84748b730c616f2, type: 2}
      propertyPath: m_LocalPosition.x
      value: 0.281
      objectReference: {fileID: 0}
    - target: {fileID: 4409242262092556, guid: f04969aeafe8c464f84748b730c616f2, type: 2}
      propertyPath: m_LocalPosition.y
      value: 0.22335768
      objectReference: {fileID: 0}
    - target: {fileID: 4409242262092556, guid: f04969aeafe8c464f84748b730c616f2, type: 2}
      propertyPath: m_LocalPosition.z
      value: -0.382
      objectReference: {fileID: 0}
    - target: {fileID: 4409242262092556, guid: f04969aeafe8c464f84748b730c616f2, type: 2}
      propertyPath: m_LocalRotation.x
      value: -0
      objectReference: {fileID: 0}
    - target: {fileID: 4409242262092556, guid: f04969aeafe8c464f84748b730c616f2, type: 2}
      propertyPath: m_LocalRotation.y
      value: -0
      objectReference: {fileID: 0}
    - target: {fileID: 4409242262092556, guid: f04969aeafe8c464f84748b730c616f2, type: 2}
      propertyPath: m_LocalRotation.z
      value: -0
      objectReference: {fileID: 0}
    - target: {fileID: 4409242262092556, guid: f04969aeafe8c464f84748b730c616f2, type: 2}
      propertyPath: m_LocalRotation.w
      value: 1
      objectReference: {fileID: 0}
    - target: {fileID: 4409242262092556, guid: f04969aeafe8c464f84748b730c616f2, type: 2}
      propertyPath: m_RootOrder
      value: 9
      objectReference: {fileID: 0}
    - target: {fileID: 114433858398636630, guid: f04969aeafe8c464f84748b730c616f2,
        type: 2}
      propertyPath: handedness
      value: 0
      objectReference: {fileID: 0}
    - target: {fileID: 114433858398636630, guid: f04969aeafe8c464f84748b730c616f2,
        type: 2}
      propertyPath: m_Enabled
      value: 1
      objectReference: {fileID: 0}
    - target: {fileID: 102036783793044290, guid: f04969aeafe8c464f84748b730c616f2,
        type: 2}
      propertyPath: m_Text
      value: "Touchpad\nRotate \n(use left)"
      objectReference: {fileID: 0}
    - target: {fileID: 4530298336197466, guid: f04969aeafe8c464f84748b730c616f2, type: 2}
      propertyPath: m_LocalPosition.y
      value: 0.15
      objectReference: {fileID: 0}
    m_RemovedComponents: []
  m_ParentPrefab: {fileID: 100100000, guid: f04969aeafe8c464f84748b730c616f2, type: 2}
  m_IsPrefabParent: 0
--- !u!1 &1730328486
GameObject:
  m_ObjectHideFlags: 0
  m_PrefabParentObject: {fileID: 0}
  m_PrefabInternal: {fileID: 0}
  serializedVersion: 5
  m_Component:
  - component: {fileID: 1730328488}
  - component: {fileID: 1730328487}
  m_Layer: 0
  m_Name: Directional Light
  m_TagString: Untagged
  m_Icon: {fileID: 0}
  m_NavMeshLayer: 0
  m_StaticEditorFlags: 0
  m_IsActive: 1
--- !u!108 &1730328487
Light:
  m_ObjectHideFlags: 0
  m_PrefabParentObject: {fileID: 0}
  m_PrefabInternal: {fileID: 0}
  m_GameObject: {fileID: 1730328486}
  m_Enabled: 1
  serializedVersion: 8
  m_Type: 1
  m_Color: {r: 1, g: 0.95686275, b: 0.8392157, a: 1}
  m_Intensity: 1
  m_Range: 10
  m_SpotAngle: 30
  m_CookieSize: 10
  m_Shadows:
    m_Type: 2
    m_Resolution: -1
    m_CustomResolution: -1
    m_Strength: 1
    m_Bias: 0.05
    m_NormalBias: 0.4
    m_NearPlane: 0.2
  m_Cookie: {fileID: 0}
  m_DrawHalo: 0
  m_Flare: {fileID: 0}
  m_RenderMode: 0
  m_CullingMask:
    serializedVersion: 2
    m_Bits: 4294967295
  m_Lightmapping: 4
  m_AreaSize: {x: 1, y: 1}
  m_BounceIntensity: 1
  m_ColorTemperature: 6570
  m_UseColorTemperature: 0
  m_ShadowRadius: 0
  m_ShadowAngle: 0
--- !u!4 &1730328488
Transform:
  m_ObjectHideFlags: 0
  m_PrefabParentObject: {fileID: 0}
  m_PrefabInternal: {fileID: 0}
  m_GameObject: {fileID: 1730328486}
  m_LocalRotation: {x: 0.40821794, y: -0.23456973, z: 0.109381676, w: 0.87542605}
  m_LocalPosition: {x: 0, y: 3, z: 0}
  m_LocalScale: {x: 1, y: 1, z: 1}
  m_Children: []
  m_Father: {fileID: 0}
  m_RootOrder: 0
  m_LocalEulerAnglesHint: {x: 0, y: 0, z: 0}
--- !u!1001 &1775287496
Prefab:
  m_ObjectHideFlags: 0
  serializedVersion: 2
  m_Modification:
    m_TransformParent: {fileID: 1394125675}
    m_Modifications:
    - target: {fileID: 4623364313996986, guid: 8e03dafa1c3802246aeb94b8c9bd157e, type: 2}
      propertyPath: m_LocalPosition.x
      value: 0.308
      objectReference: {fileID: 0}
    - target: {fileID: 4623364313996986, guid: 8e03dafa1c3802246aeb94b8c9bd157e, type: 2}
      propertyPath: m_LocalPosition.y
      value: 0.22335768
      objectReference: {fileID: 0}
    - target: {fileID: 4623364313996986, guid: 8e03dafa1c3802246aeb94b8c9bd157e, type: 2}
      propertyPath: m_LocalPosition.z
      value: 0.193
      objectReference: {fileID: 0}
    - target: {fileID: 4623364313996986, guid: 8e03dafa1c3802246aeb94b8c9bd157e, type: 2}
      propertyPath: m_LocalRotation.x
      value: -0
      objectReference: {fileID: 0}
    - target: {fileID: 4623364313996986, guid: 8e03dafa1c3802246aeb94b8c9bd157e, type: 2}
      propertyPath: m_LocalRotation.y
      value: -0
      objectReference: {fileID: 0}
    - target: {fileID: 4623364313996986, guid: 8e03dafa1c3802246aeb94b8c9bd157e, type: 2}
      propertyPath: m_LocalRotation.z
      value: -0
      objectReference: {fileID: 0}
    - target: {fileID: 4623364313996986, guid: 8e03dafa1c3802246aeb94b8c9bd157e, type: 2}
      propertyPath: m_LocalRotation.w
      value: 1
      objectReference: {fileID: 0}
    - target: {fileID: 4623364313996986, guid: 8e03dafa1c3802246aeb94b8c9bd157e, type: 2}
      propertyPath: m_RootOrder
      value: 1
      objectReference: {fileID: 0}
    - target: {fileID: 54251469248757502, guid: 8e03dafa1c3802246aeb94b8c9bd157e,
        type: 2}
      propertyPath: m_Constraints
      value: 0
      objectReference: {fileID: 0}
    - target: {fileID: 114642222778113642, guid: 8e03dafa1c3802246aeb94b8c9bd157e,
        type: 2}
      propertyPath: scaleMultiplier
      value: 0.1
      objectReference: {fileID: 0}
    m_RemovedComponents: []
  m_ParentPrefab: {fileID: 100100000, guid: 8e03dafa1c3802246aeb94b8c9bd157e, type: 2}
  m_IsPrefabParent: 0
--- !u!1001 &1866637531
Prefab:
  m_ObjectHideFlags: 0
  serializedVersion: 2
  m_Modification:
    m_TransformParent: {fileID: 1394125675}
    m_Modifications:
    - target: {fileID: 4176025311283842, guid: 1835b93e431513349a040fe99c8901d5, type: 2}
      propertyPath: m_LocalPosition.x
      value: 0.2703998
      objectReference: {fileID: 0}
    - target: {fileID: 4176025311283842, guid: 1835b93e431513349a040fe99c8901d5, type: 2}
      propertyPath: m_LocalPosition.y
      value: 0.22445774
      objectReference: {fileID: 0}
    - target: {fileID: 4176025311283842, guid: 1835b93e431513349a040fe99c8901d5, type: 2}
      propertyPath: m_LocalPosition.z
      value: -0.93673736
      objectReference: {fileID: 0}
    - target: {fileID: 4176025311283842, guid: 1835b93e431513349a040fe99c8901d5, type: 2}
      propertyPath: m_LocalRotation.x
      value: -0
      objectReference: {fileID: 0}
    - target: {fileID: 4176025311283842, guid: 1835b93e431513349a040fe99c8901d5, type: 2}
      propertyPath: m_LocalRotation.y
      value: -0
      objectReference: {fileID: 0}
    - target: {fileID: 4176025311283842, guid: 1835b93e431513349a040fe99c8901d5, type: 2}
      propertyPath: m_LocalRotation.z
      value: 1
      objectReference: {fileID: 0}
    - target: {fileID: 4176025311283842, guid: 1835b93e431513349a040fe99c8901d5, type: 2}
      propertyPath: m_LocalRotation.w
      value: 0
      objectReference: {fileID: 0}
    - target: {fileID: 4176025311283842, guid: 1835b93e431513349a040fe99c8901d5, type: 2}
      propertyPath: m_RootOrder
      value: 4
      objectReference: {fileID: 0}
    - target: {fileID: 1023119084669616, guid: 1835b93e431513349a040fe99c8901d5, type: 2}
      propertyPath: m_Name
      value: CubeHandle2_back_I
      objectReference: {fileID: 0}
    m_RemovedComponents: []
  m_ParentPrefab: {fileID: 100100000, guid: 1835b93e431513349a040fe99c8901d5, type: 2}
  m_IsPrefabParent: 0
--- !u!4 &1919950359 stripped
Transform:
  m_PrefabParentObject: {fileID: 4623364313996986, guid: 8e03dafa1c3802246aeb94b8c9bd157e,
    type: 2}
  m_PrefabInternal: {fileID: 1775287496}
--- !u!1 &1926473059
GameObject:
  m_ObjectHideFlags: 0
  m_PrefabParentObject: {fileID: 0}
  m_PrefabInternal: {fileID: 0}
  serializedVersion: 5
  m_Component:
  - component: {fileID: 1926473061}
  - component: {fileID: 1926473060}
  m_Layer: 0
  m_Name: SceneContent
  m_TagString: Untagged
  m_Icon: {fileID: 0}
  m_NavMeshLayer: 0
  m_StaticEditorFlags: 0
  m_IsActive: 1
--- !u!114 &1926473060
MonoBehaviour:
  m_ObjectHideFlags: 0
  m_PrefabParentObject: {fileID: 0}
  m_PrefabInternal: {fileID: 0}
  m_GameObject: {fileID: 1926473059}
  m_Enabled: 1
  m_EditorHideFlags: 0
  m_Script: {fileID: 11500000, guid: 906323c940a3fad4f8f7e9e4fcd747f4, type: 3}
  m_Name: 
  m_EditorClassIdentifier: 
  containerObject: {fileID: 0}
  alignmentType: 1
  stationarySpaceTypePosition: {x: 0, y: 0, z: 1}
  roomScaleSpaceTypePosition: {x: 0, y: 0.949095, z: 0}
--- !u!4 &1926473061
Transform:
  m_ObjectHideFlags: 0
  m_PrefabParentObject: {fileID: 0}
  m_PrefabInternal: {fileID: 0}
  m_GameObject: {fileID: 1926473059}
  m_LocalRotation: {x: 0, y: 0, z: 0, w: 1}
  m_LocalPosition: {x: 0, y: 0, z: 0}
  m_LocalScale: {x: 1, y: 1, z: 1}
  m_Children:
  - {fileID: 810663116}
  - {fileID: 1394125675}
  - {fileID: 1932185148}
  m_Father: {fileID: 0}
  m_RootOrder: 4
  m_LocalEulerAnglesHint: {x: 0, y: 0, z: 0}
--- !u!1 &1932185147
GameObject:
  m_ObjectHideFlags: 0
  m_PrefabParentObject: {fileID: 0}
  m_PrefabInternal: {fileID: 0}
  serializedVersion: 5
  m_Component:
  - component: {fileID: 1932185148}
  m_Layer: 0
  m_Name: Information
  m_TagString: Untagged
  m_Icon: {fileID: 0}
  m_NavMeshLayer: 0
  m_StaticEditorFlags: 0
  m_IsActive: 1
--- !u!4 &1932185148
Transform:
  m_ObjectHideFlags: 0
  m_PrefabParentObject: {fileID: 0}
  m_PrefabInternal: {fileID: 0}
  m_GameObject: {fileID: 1932185147}
  m_LocalRotation: {x: -0, y: -0, z: -0, w: 1}
  m_LocalPosition: {x: -0.43, y: 0, z: 2.1625977}
  m_LocalScale: {x: 1, y: 1, z: 1}
  m_Children:
  - {fileID: 1002827055}
  - {fileID: 247530706}
  - {fileID: 214010761}
  - {fileID: 975866697}
  m_Father: {fileID: 1926473061}
  m_RootOrder: 2
  m_LocalEulerAnglesHint: {x: 0, y: 0, z: 0}
--- !u!1001 &1981326787
Prefab:
  m_ObjectHideFlags: 0
  serializedVersion: 2
  m_Modification:
    m_TransformParent: {fileID: 1394125675}
    m_Modifications:
    - target: {fileID: 4849268863190318, guid: ad56cdfae0f9dc64fb10061a01ab3249, type: 2}
      propertyPath: m_LocalPosition.x
      value: 0.424
      objectReference: {fileID: 0}
    - target: {fileID: 4849268863190318, guid: ad56cdfae0f9dc64fb10061a01ab3249, type: 2}
      propertyPath: m_LocalPosition.y
      value: 0.22335768
      objectReference: {fileID: 0}
    - target: {fileID: 4849268863190318, guid: ad56cdfae0f9dc64fb10061a01ab3249, type: 2}
      propertyPath: m_LocalPosition.z
      value: -1.555
      objectReference: {fileID: 0}
    - target: {fileID: 4849268863190318, guid: ad56cdfae0f9dc64fb10061a01ab3249, type: 2}
      propertyPath: m_LocalRotation.x
      value: -0
      objectReference: {fileID: 0}
    - target: {fileID: 4849268863190318, guid: ad56cdfae0f9dc64fb10061a01ab3249, type: 2}
      propertyPath: m_LocalRotation.y
      value: -0
      objectReference: {fileID: 0}
    - target: {fileID: 4849268863190318, guid: ad56cdfae0f9dc64fb10061a01ab3249, type: 2}
      propertyPath: m_LocalRotation.z
      value: -0
      objectReference: {fileID: 0}
    - target: {fileID: 4849268863190318, guid: ad56cdfae0f9dc64fb10061a01ab3249, type: 2}
      propertyPath: m_LocalRotation.w
      value: 1
      objectReference: {fileID: 0}
    - target: {fileID: 4849268863190318, guid: ad56cdfae0f9dc64fb10061a01ab3249, type: 2}
      propertyPath: m_RootOrder
      value: 6
      objectReference: {fileID: 0}
    - target: {fileID: 1107048291401930, guid: ad56cdfae0f9dc64fb10061a01ab3249, type: 2}
      propertyPath: m_Name
      value: Grabbable_NoGravityThrow
      objectReference: {fileID: 0}
    m_RemovedComponents: []
  m_ParentPrefab: {fileID: 100100000, guid: ad56cdfae0f9dc64fb10061a01ab3249, type: 2}
  m_IsPrefabParent: 0
--- !u!4 &2010018273 stripped
Transform:
  m_PrefabParentObject: {fileID: 4409242262092556, guid: f04969aeafe8c464f84748b730c616f2,
    type: 2}
  m_PrefabInternal: {fileID: 1721693543}
--- !u!4 &2103405542 stripped
Transform:
  m_PrefabParentObject: {fileID: 4176025311283842, guid: 1835b93e431513349a040fe99c8901d5,
    type: 2}
  m_PrefabInternal: {fileID: 1866637531}
--- !u!54 &2131419153 stripped
Rigidbody:
  m_PrefabParentObject: {fileID: 54753601420314534, guid: 185cbc64b95076149af85f84872cb62b,
    type: 2}
  m_PrefabInternal: {fileID: 1601117858}
--- !u!1001 &2132282819
Prefab:
  m_ObjectHideFlags: 0
  serializedVersion: 2
  m_Modification:
    m_TransformParent: {fileID: 1394125675}
    m_Modifications:
    - target: {fileID: 4647506227354428, guid: 1d38a18755808db488ac7aacd9df3e3d, type: 2}
      propertyPath: m_LocalPosition.x
      value: 0.413
      objectReference: {fileID: 0}
    - target: {fileID: 4647506227354428, guid: 1d38a18755808db488ac7aacd9df3e3d, type: 2}
      propertyPath: m_LocalPosition.y
      value: 0.22335768
      objectReference: {fileID: 0}
    - target: {fileID: 4647506227354428, guid: 1d38a18755808db488ac7aacd9df3e3d, type: 2}
      propertyPath: m_LocalPosition.z
      value: -0.997
      objectReference: {fileID: 0}
    - target: {fileID: 4647506227354428, guid: 1d38a18755808db488ac7aacd9df3e3d, type: 2}
      propertyPath: m_LocalRotation.x
      value: -0
      objectReference: {fileID: 0}
    - target: {fileID: 4647506227354428, guid: 1d38a18755808db488ac7aacd9df3e3d, type: 2}
      propertyPath: m_LocalRotation.y
      value: -0
      objectReference: {fileID: 0}
    - target: {fileID: 4647506227354428, guid: 1d38a18755808db488ac7aacd9df3e3d, type: 2}
      propertyPath: m_LocalRotation.z
      value: -0
      objectReference: {fileID: 0}
    - target: {fileID: 4647506227354428, guid: 1d38a18755808db488ac7aacd9df3e3d, type: 2}
      propertyPath: m_LocalRotation.w
      value: 1
      objectReference: {fileID: 0}
    - target: {fileID: 4647506227354428, guid: 1d38a18755808db488ac7aacd9df3e3d, type: 2}
      propertyPath: m_RootOrder
      value: 5
      objectReference: {fileID: 0}
    m_RemovedComponents: []
  m_ParentPrefab: {fileID: 100100000, guid: 1d38a18755808db488ac7aacd9df3e3d, type: 2}
  m_IsPrefabParent: 0
